﻿[
  // ccs minification
  {
    "outputFileName": "wwwroot/css/style.min.css",
    "inputFiles": [
      "wwwroot/css/style.css"
    ]
  },
  {
    "outputFileName": "wwwroot/css/site.min.css",
    "inputFiles": [
      "wwwroot/css/site.css"
    ]
  },
  {
    "outputFileName": "wwwroot/css/animate.min.css",
    "inputFiles": [
      "wwwroot/css/animate.css"
    ]
  },
  {
    "outputFileName": "wwwroot/css/table.items.min.css",
    "inputFiles": [
      "wwwroot/css/datatables.min.css",
      "wwwroot/lib/toastr/toastr.min.css"
    ]
  },
  {
    "outputFileName": "wwwroot/css/multistep.form.min.css",
    "inputFiles": [
      "wwwroot/lib/chosen/chosen.min.css",
      "wwwroot/lib/bootstrap-tagsinput/src/bootstrap-tagsinput.css",
      "wwwroot/lib/smartwizard/src/css/smart_wizard.css",
      "wwwroot/lib/smartwizard/src/css/smart_wizard_theme_dots.css"
    ]
  },

  // js minification
  {
    "outputFileName": "wwwroot/js/sprintManager.min.js",
    "inputFiles": [
      "wwwroot/js/sprintManager.js"
    ],

    "minify": {
      "enabled": true,
      "renameLocals": true
    },

    "sourceMap": false
  },
  {
    "outputFileName": "wwwroot/js/taskManager.min.js",
    "inputFiles": [
      "wwwroot/js/taskManager.js"
    ],

    "minify": {
      "enabled": true,
      "renameLocals": true
    },

    "sourceMap": false
  },
  {
    "outputFileName": "wwwroot/js/siteManager.min.js",
    "inputFiles": [
      "wwwroot/js/siteManager.js"
    ],

    "minify": {
      "enabled": true,
      "renameLocals": true
    },

    "sourceMap": false
  },
  {
    "outputFileName": "wwwroot/js/multistepManager.min.js",
    "inputFiles": [
      "wwwroot/js/multistepManager.js"
    ],

    "minify": {
      "enabled": true,
      "renameLocals": true
    },

    "sourceMap": false
  },
  {
    "outputFileName": "wwwroot/js/table.items.handler.min.js",
    "inputFiles": [
      "wwwroot/js/datatables.min.js",
      "wwwroot/lib/jeditable/jquery.jeditable.js",
      "wwwroot/lib/Microsoft.jQuery.Unobtrusive.Ajax/jquery.unobtrusive-ajax.min.js",
      "wwwroot/lib/toastr/toastr.min.js",
      "wwwroot/lib/moment/min/moment.min.js"
    ],

    "minify": {
      "enabled": true,
      "renameLocals": true
    },

    "sourceMap": false
  },
  {
    "outputFileName": "wwwroot/js/multistep.form.handler.min.js",
    "inputFiles": [
      "wwwroot/lib/bootstrap-tagsinput/src/bootstrap-tagsinput.js",
      "wwwroot/lib/smartwizard/src/js/jquery.smartWizard.js",
      "wwwroot/lib/chosen/chosen.jquery.min.js"
    ],

    "minify": {
      "enabled": true,
      "renameLocals": true
    },

    "sourceMap": false
  }
]
